-- Merging decision tree log ---
manifest
ADDED from /Users/mac/Documents/backup maulana/AndroidStudioProjects/ThorTechKotlin/app/src/main/AndroidManifest.xml:2:1-27:12
INJECTED from /Users/mac/Documents/backup maulana/AndroidStudioProjects/ThorTechKotlin/app/src/main/AndroidManifest.xml:2:1-27:12
INJECTED from /Users/mac/Documents/backup maulana/AndroidStudioProjects/ThorTechKotlin/app/src/main/AndroidManifest.xml:2:1-27:12
INJECTED from /Users/mac/Documents/backup maulana/AndroidStudioProjects/ThorTechKotlin/app/src/main/AndroidManifest.xml:2:1-27:12
MERGED from [com.android.support:design:28.0.0] /Users/mac/.gradle/caches/transforms-1/files-1.1/design-28.0.0.aar/0d018de5e6945a019dca146273fc878c/AndroidManifest.xml:17:1-24:12
MERGED from [com.android.support:appcompat-v7:28.0.0] /Users/mac/.gradle/caches/transforms-1/files-1.1/appcompat-v7-28.0.0.aar/54b5348cbfc155e7841dab7b9b6efc4f/AndroidManifest.xml:17:1-22:12
MERGED from [com.android.support.constraint:constraint-layout:1.1.3] /Users/mac/.gradle/caches/transforms-1/files-1.1/constraint-layout-1.1.3.aar/95b4d9f2cc7b92c936bb2f2fd8b2b14e/AndroidManifest.xml:2:1-11:12
MERGED from [com.android.support:recyclerview-v7:28.0.0] /Users/mac/.gradle/caches/transforms-1/files-1.1/recyclerview-v7-28.0.0.aar/5140b0254f33e99c2f57a51f4986a55f/AndroidManifest.xml:17:1-22:12
MERGED from [com.android.support:support-fragment:28.0.0] /Users/mac/.gradle/caches/transforms-1/files-1.1/support-fragment-28.0.0.aar/4ec5bff42f009aec54b0c863075b5818/AndroidManifest.xml:17:1-22:12
MERGED from [com.android.support:animated-vector-drawable:28.0.0] /Users/mac/.gradle/caches/transforms-1/files-1.1/animated-vector-drawable-28.0.0.aar/26d9c5c77f1ff11ad352e514d5a6c654/AndroidManifest.xml:17:1-22:12
MERGED from [com.android.support:support-core-ui:28.0.0] /Users/mac/.gradle/caches/transforms-1/files-1.1/support-core-ui-28.0.0.aar/f13ed41d9623753291aad77f897ad9c4/AndroidManifest.xml:17:1-22:12
MERGED from [com.android.support:support-core-utils:28.0.0] /Users/mac/.gradle/caches/transforms-1/files-1.1/support-core-utils-28.0.0.aar/795039fe85fa5af22b858f3f15ef7020/AndroidManifest.xml:17:1-22:12
MERGED from [com.android.support:support-vector-drawable:28.0.0] /Users/mac/.gradle/caches/transforms-1/files-1.1/support-vector-drawable-28.0.0.aar/ec2df591dd9181507970936447fbf72f/AndroidManifest.xml:17:1-22:12
MERGED from [com.android.support:transition:28.0.0] /Users/mac/.gradle/caches/transforms-1/files-1.1/transition-28.0.0.aar/dceb99e4547d042665ff8af0aaa1cd2b/AndroidManifest.xml:17:1-22:12
MERGED from [com.android.support:loader:28.0.0] /Users/mac/.gradle/caches/transforms-1/files-1.1/loader-28.0.0.aar/1409f6d5dc0bcdf2c8dacf9780fd3d16/AndroidManifest.xml:17:1-22:12
MERGED from [com.android.support:viewpager:28.0.0] /Users/mac/.gradle/caches/transforms-1/files-1.1/viewpager-28.0.0.aar/899e391b9388b31a4df7492663d468c3/AndroidManifest.xml:17:1-22:12
MERGED from [com.android.support:coordinatorlayout:28.0.0] /Users/mac/.gradle/caches/transforms-1/files-1.1/coordinatorlayout-28.0.0.aar/36dc73ce81e487688c2ffc6d869b21e2/AndroidManifest.xml:17:1-22:12
MERGED from [com.android.support:drawerlayout:28.0.0] /Users/mac/.gradle/caches/transforms-1/files-1.1/drawerlayout-28.0.0.aar/bd386459c26341993adc5f54b0e9c04d/AndroidManifest.xml:17:1-22:12
MERGED from [com.android.support:slidingpanelayout:28.0.0] /Users/mac/.gradle/caches/transforms-1/files-1.1/slidingpanelayout-28.0.0.aar/f603555bc00ec8d687e0b9cde8fe107b/AndroidManifest.xml:17:1-22:12
MERGED from [com.android.support:customview:28.0.0] /Users/mac/.gradle/caches/transforms-1/files-1.1/customview-28.0.0.aar/58c516c08d60288e2f6522234f11395a/AndroidManifest.xml:17:1-22:12
MERGED from [com.android.support:swiperefreshlayout:28.0.0] /Users/mac/.gradle/caches/transforms-1/files-1.1/swiperefreshlayout-28.0.0.aar/f509da485d283697eee23bd56e215d01/AndroidManifest.xml:17:1-22:12
MERGED from [com.android.support:asynclayoutinflater:28.0.0] /Users/mac/.gradle/caches/transforms-1/files-1.1/asynclayoutinflater-28.0.0.aar/8c67b8e109481336268c01afbcd89d58/AndroidManifest.xml:17:1-22:12
MERGED from [com.android.support:support-compat:28.0.0] /Users/mac/.gradle/caches/transforms-1/files-1.1/support-compat-28.0.0.aar/4aadbb4db8d3614cf9d14f7157dbcbd3/AndroidManifest.xml:17:1-24:12
MERGED from [com.android.support:versionedparcelable:28.0.0] /Users/mac/.gradle/caches/transforms-1/files-1.1/versionedparcelable-28.0.0.aar/bddb90251a1828dc50b23a710c47635f/AndroidManifest.xml:17:1-25:12
MERGED from [com.android.support:cursoradapter:28.0.0] /Users/mac/.gradle/caches/transforms-1/files-1.1/cursoradapter-28.0.0.aar/2f51151dab8dabb58ce57e0bd7f7d5fc/AndroidManifest.xml:17:1-22:12
MERGED from [com.android.support:cardview-v7:28.0.0] /Users/mac/.gradle/caches/transforms-1/files-1.1/cardview-v7-28.0.0.aar/d53f909b69790a765e9c52ae1306d303/AndroidManifest.xml:17:1-22:12
MERGED from [android.arch.lifecycle:runtime:1.1.1] /Users/mac/.gradle/caches/transforms-1/files-1.1/runtime-1.1.1.aar/09bcc750faff4eed7c678a1486b26801/AndroidManifest.xml:17:1-22:12
MERGED from [com.android.support:documentfile:28.0.0] /Users/mac/.gradle/caches/transforms-1/files-1.1/documentfile-28.0.0.aar/5340aea3ad2414dc1208e21ad9b32f35/AndroidManifest.xml:17:1-22:12
MERGED from [com.android.support:localbroadcastmanager:28.0.0] /Users/mac/.gradle/caches/transforms-1/files-1.1/localbroadcastmanager-28.0.0.aar/8287d4ed91df6f80cbeb8655d3b99ced/AndroidManifest.xml:17:1-22:12
MERGED from [com.android.support:print:28.0.0] /Users/mac/.gradle/caches/transforms-1/files-1.1/print-28.0.0.aar/cf6b0cd04947e25fe07a1f2d44e2a204/AndroidManifest.xml:17:1-22:12
MERGED from [android.arch.lifecycle:viewmodel:1.1.1] /Users/mac/.gradle/caches/transforms-1/files-1.1/viewmodel-1.1.1.aar/ae0dbe5e9684d7de0f693b5814c0bded/AndroidManifest.xml:17:1-22:12
MERGED from [com.android.support:interpolator:28.0.0] /Users/mac/.gradle/caches/transforms-1/files-1.1/interpolator-28.0.0.aar/ab5ca8ef5ad637ff7ebdbef020e44d20/AndroidManifest.xml:17:1-22:12
MERGED from [android.arch.lifecycle:livedata:1.1.1] /Users/mac/.gradle/caches/transforms-1/files-1.1/livedata-1.1.1.aar/5e6731dc26f19d6def2b774e55fe5caf/AndroidManifest.xml:17:1-22:12
MERGED from [android.arch.lifecycle:livedata-core:1.1.1] /Users/mac/.gradle/caches/transforms-1/files-1.1/livedata-core-1.1.1.aar/3878d680b3320fa0847a65132edbfff4/AndroidManifest.xml:17:1-22:12
MERGED from [android.arch.core:runtime:1.1.1] /Users/mac/.gradle/caches/transforms-1/files-1.1/runtime-1.1.1.aar/6b82fe73b9eebf0af86c90782c6f6c1a/AndroidManifest.xml:17:1-22:12
INJECTED from /Users/mac/Documents/backup maulana/AndroidStudioProjects/ThorTechKotlin/app/src/main/AndroidManifest.xml:2:1-27:12
INJECTED from /Users/mac/Documents/backup maulana/AndroidStudioProjects/ThorTechKotlin/app/src/main/AndroidManifest.xml:2:1-27:12
INJECTED from /Users/mac/Documents/backup maulana/AndroidStudioProjects/ThorTechKotlin/app/src/main/AndroidManifest.xml:2:1-27:12
	package
		ADDED from /Users/mac/Documents/backup maulana/AndroidStudioProjects/ThorTechKotlin/app/src/main/AndroidManifest.xml:3:11-56
		INJECTED from /Users/mac/Documents/backup maulana/AndroidStudioProjects/ThorTechKotlin/app/src/main/AndroidManifest.xml
		INJECTED from /Users/mac/Documents/backup maulana/AndroidStudioProjects/ThorTechKotlin/app/src/main/AndroidManifest.xml
	android:versionName
		INJECTED from /Users/mac/Documents/backup maulana/AndroidStudioProjects/ThorTechKotlin/app/src/main/AndroidManifest.xml
		ADDED from /Users/mac/Documents/backup maulana/AndroidStudioProjects/ThorTechKotlin/app/src/main/AndroidManifest.xml:2:1-27:12
		INJECTED from /Users/mac/Documents/backup maulana/AndroidStudioProjects/ThorTechKotlin/app/src/main/AndroidManifest.xml
	android:versionCode
		INJECTED from /Users/mac/Documents/backup maulana/AndroidStudioProjects/ThorTechKotlin/app/src/main/AndroidManifest.xml
		ADDED from /Users/mac/Documents/backup maulana/AndroidStudioProjects/ThorTechKotlin/app/src/main/AndroidManifest.xml:2:1-27:12
		INJECTED from /Users/mac/Documents/backup maulana/AndroidStudioProjects/ThorTechKotlin/app/src/main/AndroidManifest.xml
	xmlns:android
		ADDED from /Users/mac/Documents/backup maulana/AndroidStudioProjects/ThorTechKotlin/app/src/main/AndroidManifest.xml:2:11-69
application
ADDED from /Users/mac/Documents/backup maulana/AndroidStudioProjects/ThorTechKotlin/app/src/main/AndroidManifest.xml:5:5-25:19
MERGED from [com.android.support:design:28.0.0] /Users/mac/.gradle/caches/transforms-1/files-1.1/design-28.0.0.aar/0d018de5e6945a019dca146273fc878c/AndroidManifest.xml:22:5-20
MERGED from [com.android.support:design:28.0.0] /Users/mac/.gradle/caches/transforms-1/files-1.1/design-28.0.0.aar/0d018de5e6945a019dca146273fc878c/AndroidManifest.xml:22:5-20
MERGED from [com.android.support.constraint:constraint-layout:1.1.3] /Users/mac/.gradle/caches/transforms-1/files-1.1/constraint-layout-1.1.3.aar/95b4d9f2cc7b92c936bb2f2fd8b2b14e/AndroidManifest.xml:9:5-20
MERGED from [com.android.support.constraint:constraint-layout:1.1.3] /Users/mac/.gradle/caches/transforms-1/files-1.1/constraint-layout-1.1.3.aar/95b4d9f2cc7b92c936bb2f2fd8b2b14e/AndroidManifest.xml:9:5-20
MERGED from [com.android.support:support-compat:28.0.0] /Users/mac/.gradle/caches/transforms-1/files-1.1/support-compat-28.0.0.aar/4aadbb4db8d3614cf9d14f7157dbcbd3/AndroidManifest.xml:22:5-94
MERGED from [com.android.support:support-compat:28.0.0] /Users/mac/.gradle/caches/transforms-1/files-1.1/support-compat-28.0.0.aar/4aadbb4db8d3614cf9d14f7157dbcbd3/AndroidManifest.xml:22:5-94
MERGED from [com.android.support:versionedparcelable:28.0.0] /Users/mac/.gradle/caches/transforms-1/files-1.1/versionedparcelable-28.0.0.aar/bddb90251a1828dc50b23a710c47635f/AndroidManifest.xml:22:5-23:19
MERGED from [com.android.support:versionedparcelable:28.0.0] /Users/mac/.gradle/caches/transforms-1/files-1.1/versionedparcelable-28.0.0.aar/bddb90251a1828dc50b23a710c47635f/AndroidManifest.xml:22:5-23:19
	android:appComponentFactory
		ADDED from [com.android.support:support-compat:28.0.0] /Users/mac/.gradle/caches/transforms-1/files-1.1/support-compat-28.0.0.aar/4aadbb4db8d3614cf9d14f7157dbcbd3/AndroidManifest.xml:22:18-91
	android:supportsRtl
		ADDED from /Users/mac/Documents/backup maulana/AndroidStudioProjects/ThorTechKotlin/app/src/main/AndroidManifest.xml:10:13-39
	android:label
		ADDED from /Users/mac/Documents/backup maulana/AndroidStudioProjects/ThorTechKotlin/app/src/main/AndroidManifest.xml:8:13-45
	android:roundIcon
		ADDED from /Users/mac/Documents/backup maulana/AndroidStudioProjects/ThorTechKotlin/app/src/main/AndroidManifest.xml:9:13-58
	android:icon
		ADDED from /Users/mac/Documents/backup maulana/AndroidStudioProjects/ThorTechKotlin/app/src/main/AndroidManifest.xml:7:13-47
	android:allowBackup
		ADDED from /Users/mac/Documents/backup maulana/AndroidStudioProjects/ThorTechKotlin/app/src/main/AndroidManifest.xml:6:13-39
	android:theme
		ADDED from /Users/mac/Documents/backup maulana/AndroidStudioProjects/ThorTechKotlin/app/src/main/AndroidManifest.xml:11:13-44
activity#android.thortechasia.thortechkotlin.MainActivity
ADDED from /Users/mac/Documents/backup maulana/AndroidStudioProjects/ThorTechKotlin/app/src/main/AndroidManifest.xml:12:9-20:20
	android:theme
		ADDED from /Users/mac/Documents/backup maulana/AndroidStudioProjects/ThorTechKotlin/app/src/main/AndroidManifest.xml:14:17-60
	android:name
		ADDED from /Users/mac/Documents/backup maulana/AndroidStudioProjects/ThorTechKotlin/app/src/main/AndroidManifest.xml:13:17-45
intent-filter#action:name:android.intent.action.MAIN+category:name:android.intent.category.LAUNCHER
ADDED from /Users/mac/Documents/backup maulana/AndroidStudioProjects/ThorTechKotlin/app/src/main/AndroidManifest.xml:15:13-19:29
action#android.intent.action.MAIN
ADDED from /Users/mac/Documents/backup maulana/AndroidStudioProjects/ThorTechKotlin/app/src/main/AndroidManifest.xml:16:17-68
	android:name
		ADDED from /Users/mac/Documents/backup maulana/AndroidStudioProjects/ThorTechKotlin/app/src/main/AndroidManifest.xml:16:25-66
category#android.intent.category.LAUNCHER
ADDED from /Users/mac/Documents/backup maulana/AndroidStudioProjects/ThorTechKotlin/app/src/main/AndroidManifest.xml:18:17-76
	android:name
		ADDED from /Users/mac/Documents/backup maulana/AndroidStudioProjects/ThorTechKotlin/app/src/main/AndroidManifest.xml:18:27-74
activity#android.thortechasia.thortechkotlin.ScoreBoardActivity
ADDED from /Users/mac/Documents/backup maulana/AndroidStudioProjects/ThorTechKotlin/app/src/main/AndroidManifest.xml:21:9-24:20
	android:theme
		ADDED from /Users/mac/Documents/backup maulana/AndroidStudioProjects/ThorTechKotlin/app/src/main/AndroidManifest.xml:22:19-62
	android:name
		ADDED from /Users/mac/Documents/backup maulana/AndroidStudioProjects/ThorTechKotlin/app/src/main/AndroidManifest.xml:21:19-53
uses-sdk
INJECTED from /Users/mac/Documents/backup maulana/AndroidStudioProjects/ThorTechKotlin/app/src/main/AndroidManifest.xml reason: use-sdk injection requested
INJECTED from /Users/mac/Documents/backup maulana/AndroidStudioProjects/ThorTechKotlin/app/src/main/AndroidManifest.xml
INJECTED from /Users/mac/Documents/backup maulana/AndroidStudioProjects/ThorTechKotlin/app/src/main/AndroidManifest.xml
MERGED from [com.android.support:design:28.0.0] /Users/mac/.gradle/caches/transforms-1/files-1.1/design-28.0.0.aar/0d018de5e6945a019dca146273fc878c/AndroidManifest.xml:20:5-44
MERGED from [com.android.support:design:28.0.0] /Users/mac/.gradle/caches/transforms-1/files-1.1/design-28.0.0.aar/0d018de5e6945a019dca146273fc878c/AndroidManifest.xml:20:5-44
MERGED from [com.android.support:appcompat-v7:28.0.0] /Users/mac/.gradle/caches/transforms-1/files-1.1/appcompat-v7-28.0.0.aar/54b5348cbfc155e7841dab7b9b6efc4f/AndroidManifest.xml:20:5-44
MERGED from [com.android.support:appcompat-v7:28.0.0] /Users/mac/.gradle/caches/transforms-1/files-1.1/appcompat-v7-28.0.0.aar/54b5348cbfc155e7841dab7b9b6efc4f/AndroidManifest.xml:20:5-44
MERGED from [com.android.support.constraint:constraint-layout:1.1.3] /Users/mac/.gradle/caches/transforms-1/files-1.1/constraint-layout-1.1.3.aar/95b4d9f2cc7b92c936bb2f2fd8b2b14e/AndroidManifest.xml:5:5-7:41
MERGED from [com.android.support.constraint:constraint-layout:1.1.3] /Users/mac/.gradle/caches/transforms-1/files-1.1/constraint-layout-1.1.3.aar/95b4d9f2cc7b92c936bb2f2fd8b2b14e/AndroidManifest.xml:5:5-7:41
MERGED from [com.android.support:recyclerview-v7:28.0.0] /Users/mac/.gradle/caches/transforms-1/files-1.1/recyclerview-v7-28.0.0.aar/5140b0254f33e99c2f57a51f4986a55f/AndroidManifest.xml:20:5-44
MERGED from [com.android.support:recyclerview-v7:28.0.0] /Users/mac/.gradle/caches/transforms-1/files-1.1/recyclerview-v7-28.0.0.aar/5140b0254f33e99c2f57a51f4986a55f/AndroidManifest.xml:20:5-44
MERGED from [com.android.support:support-fragment:28.0.0] /Users/mac/.gradle/caches/transforms-1/files-1.1/support-fragment-28.0.0.aar/4ec5bff42f009aec54b0c863075b5818/AndroidManifest.xml:20:5-44
MERGED from [com.android.support:support-fragment:28.0.0] /Users/mac/.gradle/caches/transforms-1/files-1.1/support-fragment-28.0.0.aar/4ec5bff42f009aec54b0c863075b5818/AndroidManifest.xml:20:5-44
MERGED from [com.android.support:animated-vector-drawable:28.0.0] /Users/mac/.gradle/caches/transforms-1/files-1.1/animated-vector-drawable-28.0.0.aar/26d9c5c77f1ff11ad352e514d5a6c654/AndroidManifest.xml:20:5-44
MERGED from [com.android.support:animated-vector-drawable:28.0.0] /Users/mac/.gradle/caches/transforms-1/files-1.1/animated-vector-drawable-28.0.0.aar/26d9c5c77f1ff11ad352e514d5a6c654/AndroidManifest.xml:20:5-44
MERGED from [com.android.support:support-core-ui:28.0.0] /Users/mac/.gradle/caches/transforms-1/files-1.1/support-core-ui-28.0.0.aar/f13ed41d9623753291aad77f897ad9c4/AndroidManifest.xml:20:5-44
MERGED from [com.android.support:support-core-ui:28.0.0] /Users/mac/.gradle/caches/transforms-1/files-1.1/support-core-ui-28.0.0.aar/f13ed41d9623753291aad77f897ad9c4/AndroidManifest.xml:20:5-44
MERGED from [com.android.support:support-core-utils:28.0.0] /Users/mac/.gradle/caches/transforms-1/files-1.1/support-core-utils-28.0.0.aar/795039fe85fa5af22b858f3f15ef7020/AndroidManifest.xml:20:5-44
MERGED from [com.android.support:support-core-utils:28.0.0] /Users/mac/.gradle/caches/transforms-1/files-1.1/support-core-utils-28.0.0.aar/795039fe85fa5af22b858f3f15ef7020/AndroidManifest.xml:20:5-44
MERGED from [com.android.support:support-vector-drawable:28.0.0] /Users/mac/.gradle/caches/transforms-1/files-1.1/support-vector-drawable-28.0.0.aar/ec2df591dd9181507970936447fbf72f/AndroidManifest.xml:20:5-44
MERGED from [com.android.support:support-vector-drawable:28.0.0] /Users/mac/.gradle/caches/transforms-1/files-1.1/support-vector-drawable-28.0.0.aar/ec2df591dd9181507970936447fbf72f/AndroidManifest.xml:20:5-44
MERGED from [com.android.support:transition:28.0.0] /Users/mac/.gradle/caches/transforms-1/files-1.1/transition-28.0.0.aar/dceb99e4547d042665ff8af0aaa1cd2b/AndroidManifest.xml:20:5-44
MERGED from [com.android.support:transition:28.0.0] /Users/mac/.gradle/caches/transforms-1/files-1.1/transition-28.0.0.aar/dceb99e4547d042665ff8af0aaa1cd2b/AndroidManifest.xml:20:5-44
MERGED from [com.android.support:loader:28.0.0] /Users/mac/.gradle/caches/transforms-1/files-1.1/loader-28.0.0.aar/1409f6d5dc0bcdf2c8dacf9780fd3d16/AndroidManifest.xml:20:5-44
MERGED from [com.android.support:loader:28.0.0] /Users/mac/.gradle/caches/transforms-1/files-1.1/loader-28.0.0.aar/1409f6d5dc0bcdf2c8dacf9780fd3d16/AndroidManifest.xml:20:5-44
MERGED from [com.android.support:viewpager:28.0.0] /Users/mac/.gradle/caches/transforms-1/files-1.1/viewpager-28.0.0.aar/899e391b9388b31a4df7492663d468c3/AndroidManifest.xml:20:5-44
MERGED from [com.android.support:viewpager:28.0.0] /Users/mac/.gradle/caches/transforms-1/files-1.1/viewpager-28.0.0.aar/899e391b9388b31a4df7492663d468c3/AndroidManifest.xml:20:5-44
MERGED from [com.android.support:coordinatorlayout:28.0.0] /Users/mac/.gradle/caches/transforms-1/files-1.1/coordinatorlayout-28.0.0.aar/36dc73ce81e487688c2ffc6d869b21e2/AndroidManifest.xml:20:5-44
MERGED from [com.android.support:coordinatorlayout:28.0.0] /Users/mac/.gradle/caches/transforms-1/files-1.1/coordinatorlayout-28.0.0.aar/36dc73ce81e487688c2ffc6d869b21e2/AndroidManifest.xml:20:5-44
MERGED from [com.android.support:drawerlayout:28.0.0] /Users/mac/.gradle/caches/transforms-1/files-1.1/drawerlayout-28.0.0.aar/bd386459c26341993adc5f54b0e9c04d/AndroidManifest.xml:20:5-44
MERGED from [com.android.support:drawerlayout:28.0.0] /Users/mac/.gradle/caches/transforms-1/files-1.1/drawerlayout-28.0.0.aar/bd386459c26341993adc5f54b0e9c04d/AndroidManifest.xml:20:5-44
MERGED from [com.android.support:slidingpanelayout:28.0.0] /Users/mac/.gradle/caches/transforms-1/files-1.1/slidingpanelayout-28.0.0.aar/f603555bc00ec8d687e0b9cde8fe107b/AndroidManifest.xml:20:5-44
MERGED from [com.android.support:slidingpanelayout:28.0.0] /Users/mac/.gradle/caches/transforms-1/files-1.1/slidingpanelayout-28.0.0.aar/f603555bc00ec8d687e0b9cde8fe107b/AndroidManifest.xml:20:5-44
MERGED from [com.android.support:customview:28.0.0] /Users/mac/.gradle/caches/transforms-1/files-1.1/customview-28.0.0.aar/58c516c08d60288e2f6522234f11395a/AndroidManifest.xml:20:5-44
MERGED from [com.android.support:customview:28.0.0] /Users/mac/.gradle/caches/transforms-1/files-1.1/customview-28.0.0.aar/58c516c08d60288e2f6522234f11395a/AndroidManifest.xml:20:5-44
MERGED from [com.android.support:swiperefreshlayout:28.0.0] /Users/mac/.gradle/caches/transforms-1/files-1.1/swiperefreshlayout-28.0.0.aar/f509da485d283697eee23bd56e215d01/AndroidManifest.xml:20:5-44
MERGED from [com.android.support:swiperefreshlayout:28.0.0] /Users/mac/.gradle/caches/transforms-1/files-1.1/swiperefreshlayout-28.0.0.aar/f509da485d283697eee23bd56e215d01/AndroidManifest.xml:20:5-44
MERGED from [com.android.support:asynclayoutinflater:28.0.0] /Users/mac/.gradle/caches/transforms-1/files-1.1/asynclayoutinflater-28.0.0.aar/8c67b8e109481336268c01afbcd89d58/AndroidManifest.xml:20:5-44
MERGED from [com.android.support:asynclayoutinflater:28.0.0] /Users/mac/.gradle/caches/transforms-1/files-1.1/asynclayoutinflater-28.0.0.aar/8c67b8e109481336268c01afbcd89d58/AndroidManifest.xml:20:5-44
MERGED from [com.android.support:support-compat:28.0.0] /Users/mac/.gradle/caches/transforms-1/files-1.1/support-compat-28.0.0.aar/4aadbb4db8d3614cf9d14f7157dbcbd3/AndroidManifest.xml:20:5-44
MERGED from [com.android.support:support-compat:28.0.0] /Users/mac/.gradle/caches/transforms-1/files-1.1/support-compat-28.0.0.aar/4aadbb4db8d3614cf9d14f7157dbcbd3/AndroidManifest.xml:20:5-44
MERGED from [com.android.support:versionedparcelable:28.0.0] /Users/mac/.gradle/caches/transforms-1/files-1.1/versionedparcelable-28.0.0.aar/bddb90251a1828dc50b23a710c47635f/AndroidManifest.xml:20:5-44
MERGED from [com.android.support:versionedparcelable:28.0.0] /Users/mac/.gradle/caches/transforms-1/files-1.1/versionedparcelable-28.0.0.aar/bddb90251a1828dc50b23a710c47635f/AndroidManifest.xml:20:5-44
MERGED from [com.android.support:cursoradapter:28.0.0] /Users/mac/.gradle/caches/transforms-1/files-1.1/cursoradapter-28.0.0.aar/2f51151dab8dabb58ce57e0bd7f7d5fc/AndroidManifest.xml:20:5-44
MERGED from [com.android.support:cursoradapter:28.0.0] /Users/mac/.gradle/caches/transforms-1/files-1.1/cursoradapter-28.0.0.aar/2f51151dab8dabb58ce57e0bd7f7d5fc/AndroidManifest.xml:20:5-44
MERGED from [com.android.support:cardview-v7:28.0.0] /Users/mac/.gradle/caches/transforms-1/files-1.1/cardview-v7-28.0.0.aar/d53f909b69790a765e9c52ae1306d303/AndroidManifest.xml:20:5-44
MERGED from [com.android.support:cardview-v7:28.0.0] /Users/mac/.gradle/caches/transforms-1/files-1.1/cardview-v7-28.0.0.aar/d53f909b69790a765e9c52ae1306d303/AndroidManifest.xml:20:5-44
MERGED from [android.arch.lifecycle:runtime:1.1.1] /Users/mac/.gradle/caches/transforms-1/files-1.1/runtime-1.1.1.aar/09bcc750faff4eed7c678a1486b26801/AndroidManifest.xml:20:5-44
MERGED from [android.arch.lifecycle:runtime:1.1.1] /Users/mac/.gradle/caches/transforms-1/files-1.1/runtime-1.1.1.aar/09bcc750faff4eed7c678a1486b26801/AndroidManifest.xml:20:5-44
MERGED from [com.android.support:documentfile:28.0.0] /Users/mac/.gradle/caches/transforms-1/files-1.1/documentfile-28.0.0.aar/5340aea3ad2414dc1208e21ad9b32f35/AndroidManifest.xml:20:5-44
MERGED from [com.android.support:documentfile:28.0.0] /Users/mac/.gradle/caches/transforms-1/files-1.1/documentfile-28.0.0.aar/5340aea3ad2414dc1208e21ad9b32f35/AndroidManifest.xml:20:5-44
MERGED from [com.android.support:localbroadcastmanager:28.0.0] /Users/mac/.gradle/caches/transforms-1/files-1.1/localbroadcastmanager-28.0.0.aar/8287d4ed91df6f80cbeb8655d3b99ced/AndroidManifest.xml:20:5-44
MERGED from [com.android.support:localbroadcastmanager:28.0.0] /Users/mac/.gradle/caches/transforms-1/files-1.1/localbroadcastmanager-28.0.0.aar/8287d4ed91df6f80cbeb8655d3b99ced/AndroidManifest.xml:20:5-44
MERGED from [com.android.support:print:28.0.0] /Users/mac/.gradle/caches/transforms-1/files-1.1/print-28.0.0.aar/cf6b0cd04947e25fe07a1f2d44e2a204/AndroidManifest.xml:20:5-44
MERGED from [com.android.support:print:28.0.0] /Users/mac/.gradle/caches/transforms-1/files-1.1/print-28.0.0.aar/cf6b0cd04947e25fe07a1f2d44e2a204/AndroidManifest.xml:20:5-44
MERGED from [android.arch.lifecycle:viewmodel:1.1.1] /Users/mac/.gradle/caches/transforms-1/files-1.1/viewmodel-1.1.1.aar/ae0dbe5e9684d7de0f693b5814c0bded/AndroidManifest.xml:20:5-44
MERGED from [android.arch.lifecycle:viewmodel:1.1.1] /Users/mac/.gradle/caches/transforms-1/files-1.1/viewmodel-1.1.1.aar/ae0dbe5e9684d7de0f693b5814c0bded/AndroidManifest.xml:20:5-44
MERGED from [com.android.support:interpolator:28.0.0] /Users/mac/.gradle/caches/transforms-1/files-1.1/interpolator-28.0.0.aar/ab5ca8ef5ad637ff7ebdbef020e44d20/AndroidManifest.xml:20:5-44
MERGED from [com.android.support:interpolator:28.0.0] /Users/mac/.gradle/caches/transforms-1/files-1.1/interpolator-28.0.0.aar/ab5ca8ef5ad637ff7ebdbef020e44d20/AndroidManifest.xml:20:5-44
MERGED from [android.arch.lifecycle:livedata:1.1.1] /Users/mac/.gradle/caches/transforms-1/files-1.1/livedata-1.1.1.aar/5e6731dc26f19d6def2b774e55fe5caf/AndroidManifest.xml:20:5-44
MERGED from [android.arch.lifecycle:livedata:1.1.1] /Users/mac/.gradle/caches/transforms-1/files-1.1/livedata-1.1.1.aar/5e6731dc26f19d6def2b774e55fe5caf/AndroidManifest.xml:20:5-44
MERGED from [android.arch.lifecycle:livedata-core:1.1.1] /Users/mac/.gradle/caches/transforms-1/files-1.1/livedata-core-1.1.1.aar/3878d680b3320fa0847a65132edbfff4/AndroidManifest.xml:20:5-44
MERGED from [android.arch.lifecycle:livedata-core:1.1.1] /Users/mac/.gradle/caches/transforms-1/files-1.1/livedata-core-1.1.1.aar/3878d680b3320fa0847a65132edbfff4/AndroidManifest.xml:20:5-44
MERGED from [android.arch.core:runtime:1.1.1] /Users/mac/.gradle/caches/transforms-1/files-1.1/runtime-1.1.1.aar/6b82fe73b9eebf0af86c90782c6f6c1a/AndroidManifest.xml:20:5-44
MERGED from [android.arch.core:runtime:1.1.1] /Users/mac/.gradle/caches/transforms-1/files-1.1/runtime-1.1.1.aar/6b82fe73b9eebf0af86c90782c6f6c1a/AndroidManifest.xml:20:5-44
INJECTED from /Users/mac/Documents/backup maulana/AndroidStudioProjects/ThorTechKotlin/app/src/main/AndroidManifest.xml
INJECTED from /Users/mac/Documents/backup maulana/AndroidStudioProjects/ThorTechKotlin/app/src/main/AndroidManifest.xml
	android:targetSdkVersion
		INJECTED from /Users/mac/Documents/backup maulana/AndroidStudioProjects/ThorTechKotlin/app/src/main/AndroidManifest.xml
		ADDED from /Users/mac/Documents/backup maulana/AndroidStudioProjects/ThorTechKotlin/app/src/main/AndroidManifest.xml
		INJECTED from /Users/mac/Documents/backup maulana/AndroidStudioProjects/ThorTechKotlin/app/src/main/AndroidManifest.xml
	android:minSdkVersion
		INJECTED from /Users/mac/Documents/backup maulana/AndroidStudioProjects/ThorTechKotlin/app/src/main/AndroidManifest.xml
		ADDED from /Users/mac/Documents/backup maulana/AndroidStudioProjects/ThorTechKotlin/app/src/main/AndroidManifest.xml
		INJECTED from /Users/mac/Documents/backup maulana/AndroidStudioProjects/ThorTechKotlin/app/src/main/AndroidManifest.xml
